demux1to4/simulation/qsim/demux1to4.msim.vcd
$comment
	File created using the following command:
		vcd file demux1to4.msim.vcd -direction
$end
$date
	Sun Feb 21 19:40:23 2021
$end
$version
	ModelSim Version 10.1d
$end
$timescale
	1ps
$end
$scope module demux1to4_vlg_vec_tst $end
$var reg 1 ! A $end
$var reg 2 " Sel [1:0] $end
$var wire 1 # W $end
$var wire 1 $ X $end
$var wire 1 % Y $end
$var wire 1 & Z $end
$var wire 1 ' sampler $end
$scope module i1 $end
$var wire 1 ( gnd $end
$var wire 1 ) vcc $end
$var wire 1 * unknown $end
$var tri1 1 + devclrn $end
$var tri1 1 , devpor $end
$var tri1 1 - devoe $end
$var wire 1 . W~output_o $end
$var wire 1 / X~output_o $end
$var wire 1 0 Y~output_o $end
$var wire 1 1 Z~output_o $end
$var wire 1 2 Sel[0]~input_o $end
$var wire 1 3 Sel[1]~input_o $end
$var wire 1 4 A~input_o $end
$var wire 1 5 W~0_combout $end
$var wire 1 6 X~0_combout $end
$var wire 1 7 Y~0_combout $end
$var wire 1 8 Z~0_combout $end
$upscope $end
$upscope $end
$enddefinitions $end
#0
$dumpvars
0!
b0 "
0#
0$
0%
0&
x'
0(
1)
x*
1+
1,
1-
0.
0/
00
01
02
03
04
05
06
07
08
$end
#5000
1!
14
0'
15
1.
1#
#10000
b10 "
0!
13
04
1'
05
0.
0#
#15000
b11 "
1!
12
14
0'
18
11
1&
#20000
b1 "
0!
03
04
1'
08
01
0&
#25000
1!
14
0'
16
1/
1$
#30000
b0 "
b10 "
0!
02
13
04
1'
06
0/
0$
#35000
1!
14
0'
17
10
1%
#40000
b0 "
0!
03
04
1'
07
00
0%
#45000
b1 "
1!
12
14
0'
16
1/
1$
#50000
b11 "
0!
13
04
1'
06
0/
0$
#55000
1!
14
0'
18
11
1&
