encoder8to3/simulation/qsim/encoder8to3.msim.vcd
$comment
	File created using the following command:
		vcd file encoder8to3.msim.vcd -direction
$end
$date
	Sun Feb 21 20:04:29 2021
$end
$version
	ModelSim Version 10.1d
$end
$timescale
	1ps
$end
$scope module encoder8to3_vlg_vec_tst $end
$var reg 8 ! F [7:0] $end
$var wire 1 " A $end
$var wire 1 # B $end
$var wire 1 $ C $end
$var wire 1 % sampler $end
$scope module i1 $end
$var wire 1 & gnd $end
$var wire 1 ' vcc $end
$var wire 1 ( unknown $end
$var tri1 1 ) devclrn $end
$var tri1 1 * devpor $end
$var tri1 1 + devoe $end
$var wire 1 , F[0]~input_o $end
$var wire 1 - A~output_o $end
$var wire 1 . B~output_o $end
$var wire 1 / C~output_o $end
$var wire 1 0 F[4]~input_o $end
$var wire 1 1 F[6]~input_o $end
$var wire 1 2 F[5]~input_o $end
$var wire 1 3 F[7]~input_o $end
$var wire 1 4 A~0_combout $end
$var wire 1 5 F[2]~input_o $end
$var wire 1 6 F[3]~input_o $end
$var wire 1 7 B~0_combout $end
$var wire 1 8 F[1]~input_o $end
$var wire 1 9 C~0_combout $end
$upscope $end
$upscope $end
$enddefinitions $end
#0
$dumpvars
b0 !
0"
0#
0$
x%
0&
1'
x(
1)
1*
1+
0,
0-
0.
0/
00
01
02
03
04
05
06
07
08
09
$end
#5000
b10000000 !
13
0%
19
17
14
1/
1.
1-
1$
1#
1"
#10000
b11000000 !
b1000000 !
11
03
1%
09
0/
0$
#15000
b1100000 !
b11100000 !
12
13
0%
19
1/
1$
#20000
b11110000 !
b10110000 !
b110000 !
10
01
03
1%
07
0.
0#
#25000
b111000 !
b10111000 !
16
13
0%
17
1.
1#
#30000
b10111100 !
b10011100 !
b11011100 !
b1011100 !
15
02
11
03
1%
#35000
b1011110 !
b11011110 !
18
13
0%
#40000
b11011111 !
b11001111 !
b10001111 !
b1111 !
1,
00
01
03
1%
04
0-
0"
#45000
b101111 !
b10101111 !
12
13
0%
14
1-
1"
#50000
b10100111 !
b11100111 !
b1100111 !
06
11
03
1%
#55000
b11100111 !
13
0%
#60000
b11100011 !
b11110011 !
b11010011 !
b10010011 !
b10011 !
05
10
02
01
03
1%
07
0.
0#
#65000
b10010011 !
13
0%
17
1.
1#
#70000
b10010001 !
b11010001 !
b1010001 !
08
11
03
1%
09
0/
0$
#75000
b1011001 !
b1111001 !
b11111001 !
16
12
13
0%
19
1/
1$
#80000
b11111000 !
b11101000 !
b10101000 !
b101000 !
0,
00
01
03
1%
#85000
b10101000 !
13
0%
#90000
b10101100 !
b10001100 !
b11001100 !
b1001100 !
15
02
11
03
1%
#95000
b11001100 !
13
0%
#100000
b11000100 !
b11010100 !
b10010100 !
b10100 !
06
10
01
03
1%
09
0/
0$
#105000
b10110 !
b110110 !
b10110110 !
18
12
13
0%
19
1/
1$
#110000
b11110110 !
b1110110 !
11
03
1%
#115000
b11110110 !
13
0%
#120000
b11110111 !
b11110011 !
b11100011 !
b11000011 !
b10000011 !
b11 !
1,
05
00
02
01
03
1%
07
04
0.
0-
0#
0"
#125000
b1011 !
b10001011 !
16
13
0%
17
14
1.
1-
1#
1"
#130000
b11001011 !
b1001011 !
11
03
1%
#135000
b1101011 !
b11101011 !
12
13
0%
#140000
b11101001 !
b11111001 !
b10111001 !
b111001 !
08
10
01
03
1%
#145000
b10111001 !
13
0%
#150000
b10111101 !
b10110101 !
b10010101 !
b11010101 !
b1010101 !
15
06
02
11
03
1%
09
0/
0$
#155000
b11010101 !
13
0%
19
1/
1$
#160000
b11010100 !
b11000100 !
b10000100 !
b100 !
0,
00
01
03
1%
04
09
0-
0/
0"
0$
#165000
b100100 !
b10100100 !
12
13
0%
19
14
1/
1-
1$
1"
